…
# Number of observations for each country
n <- 1000000 

firm_data <- tibble(
  country = rep(countries, each = n),
  profits = runif(n = n*length(countries), min = 15, max = 50),
  unionized = sample(c(TRUE, FALSE), size = n*length(countries), replace = TRUE),
  share_tertiary = runif(n*length(countries)),
  employees = runif(n = n*length(countries), min = 1, max = 300) %>% round()
)

firm_data
```

    ## # A tibble: 5,000,000 x 5
    ##    country profits unionized share_tertiary employees
    ##    <fct>     <dbl> <lgl>              <dbl>     <dbl>
    ##  1 Italy      47.4 FALSE             0.966        289
    ##  2 Italy      28.1 TRUE              0.201         77
    ##  3 Italy      19.7 TRUE              0.728        251
    ##  4 Italy      34.8 TRUE              0.0282       234
    ##  5 Italy      26.0 TRUE              0.261          8
    ##  6 Italy      23.9 TRUE              0.257         31
    ##  7 Italy      24.1 TRUE              0.149        162
    ##  8 Italy      46.3 TRUE              0.418        201
    ##  9 Italy      48.1 TRUE              0.573        214
    ## 10 Italy      25.4 FALSE             0.707         85
    ## # ... with 4,999,990 more rows
…
